…
    
teams
```

    ## # A tibble: 30 x 15
    ##     team experience salary points3 points2 points1 points off_rebounds
    ##    <chr>      <dbl>  <dbl>   <dbl>   <dbl>   <dbl>  <dbl>        <dbl>
    ##  1   ATL        100     95     660    2337    1453   8107          832
    ##  2   BOS         63     94     985    2183    1536   8857          744
    ##  3   BRK         70     78     777    2040    1444   7855          689
    ##  4   CHI         59     95     565    2162    1330   7349          865
    ##  5   CHO         63     91     808    2089    1497   8099          621
    ##  6   CLE        145    129    1030    2148    1384   8770          735
    ##  7   DAL         65     95     712    1754    1007   6651          521
    ##  8   DEN         83     81     868    2351    1477   8783          872
    ##  9   DET         55    105     631    2638    1140   8309          908
    ## 10   GSW        113    102     982    2545    1455   9491          770
    ## # ... with 20 more rows, and 7 more variables: def_rebounds <dbl>,
    ## #   assists <dbl>, steals <dbl>, blocks <dbl>, turnovers <dbl>,
    ## #   fouls <dbl>, efficiency <dbl>
…
